{
  "alacritty.toml": {
    "type": "file",
    "target": "~/.config/alacritty/alacritty.conf"
  },
  "fish": {
    "type": "directory",
    "target": "~/.config/fish"
  },
  "helix": {
    "type": "directory",
    "target": "~/.config/helix"
  },
  "nvim-init.lua": {
    "type": "file",
    "target": "~/.config/nvim/init.lua"
  },
  "vimrc": {
    "type": "file",
    "target": "~/.vimrc"
  },
  "zshrc": {
    "type": "file",
    "target": "~/.zshrc"
  },
  "profile": {
    "type": "file",
    "target": "~/.profile"
  },
  "environment.d": {
    "type": "directory",
    "target": "~/.config/environment.d"
  },
  "gtk/gtkrc-2.0": {
    "type": "file",
    "target": "~/.gtkrc-2.0"
  },
  "gtk/gtkrc-2.0.mine": {
    "type": "file",
    "target": "~/.gtkrc-2.0.mine"
  },
  "gtk/settings-3.0.ini": {
    "type": "file",
    "target": "~/.config/gtk-3.0/settings.ini"
  },
  "qt6ct.conf": {
    "type": "file",
    "target": "~/.config/qt6ct/qt6ct.conf"
  },
  "quadlet": {
    "type": "directory",
    "target": "~/.config/containers/systemd"
  },
  "radicale-decsync-config": {
    "type": "file",
    "target": "~/.config/radicale-decsync/config"
  }
}
